[
  {
	"id": 1,
	"title": "Abidjan (Plateau)",
	"latitude": 5.323318,
	"longitude": -4.0235718,
	"descriptionhtml": "Tel. : +225 20 20 81 00",
	"hrefsite": "",
	"markergroup": 1
  },
  {
	"id": 2,
	"title": "Abidjan (Vridi)",
	"latitude": 5.2622986,
	"longitude": -3.984016,
	"descriptionhtml": "Tel. : +225 21 75 64 40",
	"hrefsite": "",
	"markergroup": 1
  },
  {
	"id": 3,
	"title": "Bouaké",
	"latitude": 7.690466,
	"longitude": -5.0390536,
	"descriptionhtml": "Tel.: +225 31 64 02 30/31/32",
	"hrefsite": "",
	"markergroup": 1
  },
  {
	"id": 4,
	"title": "Yamoussoukro",
	"latitude": 6.8276228,
	"longitude": -5.2893433,
	"descriptionhtml": "Tel. : +225 30 64 50 90",
	"hrefsite": "",
	"markergroup": 1
  },
  {
	"id": 5,
	"title": "Abengourou",
	"latitude": 6.7156982,
	"longitude": -3.4801349,
	"descriptionhtml": "Tel. : +225 35 91 34 71",
	"hrefsite": "",
	"markergroup": 1
  },
  {
	"id": 6,
	"title": "Daloa",
	"latitude": 6.8883341,
	"longitude": -6.4396888,
	"descriptionhtml": "Tel. : +225 32 78 83 20",
	"hrefsite": "",
	"markergroup": 1
  },
  {
	"id": 7,
	"title": "Gagnoa",
	"latitude": 6.1514423,
	"longitude": -5.9515399,
	"descriptionhtml": "Tel. : +225 32 77 38 00",
	"hrefsite": "",
	"markergroup": 1
  },
  {
	"id": 8,
	"title": "Man",
	"latitude": 7.4064275,
	"longitude": -7.5572231,
	"descriptionhtml": "Tel. : +225 47 46 90 63",
	"hrefsite": "",
	"markergroup": 1
  },
  {
	"id": 9,
	"title": "Korhogo",
	"latitude": 9.4669337,
	"longitude": -5.6142558,
	"descriptionhtml": "Tel.: +225 36 85 13 00",
	"hrefsite": "",
	"markergroup": 1
  },
  {
	"id": 10,
	"title": "San Pedro",
	"latitude": 4.7578686,
	"longitude": -6.642433,
	"descriptionhtml": "Tel.: +225 34 71 28 72",
	"hrefsite": "",
	"markergroup": 1
  }
]
