[
  {
	"id": 1,
	"title": "Abreu Advogados",
	"latitude": 38.725735,
	"longitude": -9.15021,
	"descriptionhtml": "<p>Lisbon - PORTUGAL<br />Tel:+351 21 723 18 00 - Fax:+351 21 723 18 99<br />lisboa@abreuadvogados.com</p>",
	"hrefsite": "http://www.abreuadvogados.com",
	"markergroup": 1
  },
  {
	"id": 2,
	"title": "Advokatfirman Glimstedt",
	"latitude": 57.701237,
	"longitude": 11.967105,
	"descriptionhtml": "<p>Gothenburg - SWEDEN<br />Tel:+46 31-710 40 00 - Fax:+46 31-710 40 01</p>",
	"hrefsite": "http://www.glimstedt.se",
	"markergroup": 1
  },
  {
	"id": 3,
	"title": "Anderson Strathern LLP",
	"latitude": 55.954155,
	"longitude": -3.202774,
	"descriptionhtml": "<p>Edinburgh - SCOTLAND<br>Tel:(00) 44 131 270 7700 - Fax:(00) 44 131 270 7788<br></p>",
	"hrefsite": "http://www.andersonstrathern.co.uk",
	"markergroup": 1
  },
  {
	"id": 4,
	"title": "Appleby",
	"latitude": 54.231739,
	"longitude": -4.570125,
	"descriptionhtml": "<p>Isle of Man - ISLE OF MAN <br>Tel:+44 (0)1624 647647 - Fax:+44 (0)1624 620992<br>skdowling@applebyglobal.com</p>",
	"hrefsite": "http://www.applebyglobal.com",
	"markergroup": 1
  },
  {
	"id": 5,
	"title": "Arthur Cox",
	"latitude": 53.348068,
	"longitude": -6.248274,
	"descriptionhtml": "<p>Dublin - IRELAND<br>Tel:(00)-353-1-618-0000 - Fax:(00)-353-1-618-0618<br></p>",
	"hrefsite": "http://www.arthurcox.comhome.html",
	"markergroup": 1
  },
  {
	"id": 6,
	"title": "Bazlyankov Stanoev & Tashev",
	"latitude": 42.135731,
	"longitude": 24.748289,
	"descriptionhtml": "<p>Plovdiv  - BULGARIA<br>Tel:+ 359 32 266 620 - Fax:+ 359 32 653 164<br></p>",
	"hrefsite": "http://www.bstlawyers.com",
	"markergroup": 1
  },
  {
	"id": 7,
	"title": "Blix Advokatfirma",
	"latitude": 59.912281,
	"longitude": 10.74998,
	"descriptionhtml": "<p>Oslo  - NORWAY<br>Tel:+47 22 83 80 30 - <br></p>",
	"hrefsite": "http://www.blix-law.no",
	"markergroup": 1
  },
  {
	"id": 8,
	"title": "Brabners Chaffe Street LLP",
	"latitude": 53.409775,
	"longitude": -2.978481,
	"descriptionhtml": "<p>Liverpool  - UNITED KINGDOM<br>Tel:+44 (0) 151 600 3000 - Fax:+44 (0) 151 227 3185<br>law@brabnerscs.com</p>",
	"hrefsite": "http://www.brabnerschaffestreet.com",
	"markergroup": 1
  },
  {
	"id": 9,
	"title": "Bull & Co",
	"latitude": 59.912281,
	"longitude": 10.74998,
	"descriptionhtml": "<p>Oslo  - NORWAY<br>Tel:+47 23 01 01 01 - Fax:+47 23 01 01 11<br>bull@bullco.no</p>",
	"hrefsite": "http://www.bullco.no",
	"markergroup": 1
  },
  {
	"id": 10,
	"title": "Carey Olsen",
	"latitude": 49.572533,
	"longitude": -2.419635,
	"descriptionhtml": "<p>Guernsey - CHANNEL ISLANDS<br>Tel:+44 (0) 1481 727272 - Fax:+44 (0) 1481 711052<br></p>",
	"hrefsite": "http://www.careyolsen.com",
	"markergroup": 1
  },
  {
	"id": 11,
	"title": "Charles Russell LLP",
	"latitude": 51.506325,
	"longitude": -0.127144,
	"descriptionhtml": "<p>London - UNITED KINGDOM<br>Tel:+44 (0)20 7203 5000 - Fax:+44 (0)20 7203 0200<br></p>",
	"hrefsite": "http://www.charlesrussell.co.uk",
	"markergroup": 1
  },
  {
	"id": 12,
	"title": "Courtois Lebel",
	"latitude": 48.889297,
	"longitude": 2.302945,
	"descriptionhtml": "<p>Paris - FRANCE<br>Tel:(00) 33 (0) 1 58 44 92 92 - Fax:(00) 33 (0) 1 58 44 92 58<br>contact@courtois-lebel.com</p>",
	"hrefsite": "https://courtois-lebel.com",
	"markergroup": 1
  },
  {
	"id": 13,
	"title": "Çukur & Yilmaz",
	"latitude": 41.040855,
	"longitude": 28.986183,
	"descriptionhtml": "<p>Istanbul - TURKEY<br>Tel:+90 232 465 07 0 - Fax:+90 232 465 02 36<br></p>",
	"hrefsite": "http://www.cukuryilmaz.av.tr",
	"markergroup": 1
  },
  {
	"id": 14,
	"title": "Dittmar & Indrenius",
	"latitude": 60.171162,
	"longitude": 24.932581,
	"descriptionhtml": "<p>Helsinki - FINLAND<br>Tel:+358 9 681 700 - Fax:+358 9 652 406<br>office@dittmar.fi</p>",
	"hrefsite": "http://www.dittmar.fi",
	"markergroup": 1
  },
  {
	"id": 15,
	"title": "DSM Di Stefano Moyse Avocats a la cour",
	"latitude": 49.609531,
	"longitude": 6.12997,
	"descriptionhtml": "<p>Luxembourg - LUXEMBOURG<br>Tel:(00) 352 262 5621 - Fax:(00) 352 262 5622<br></p>",
	"hrefsite": "http://www.dsmlegal.com",
	"markergroup": 1
  },
  {
	"id": 16,
	"title": "Fellner Wratzfeld & Partners Rechtsanwälte GmbH",
	"latitude": 48.202549,
	"longitude": 16.368805,
	"descriptionhtml": "<p>Vienna - AUSTRIA<br>Tel:(00) 43 1 537 70 - Fax:(00) 43 1 537 70 70<br>office@fwp.at</p>",
	"hrefsite": "http://www.fwp.at",
	"markergroup": 1
  },
  {
	"id": 17,
	"title": "Fenech & Fenech Advocates",
	"latitude": 35.893555,
	"longitude": 14.511844,
	"descriptionhtml": "<p>Valletta - MALTA<br>Tel:(+356) 2124 1232 - Fax:(+356) 2599 0640<br>f.f@fenlex.com</p>",
	"hrefsite": "http://www.fenechlaw.com",
	"markergroup": 1
  },
  {
	"id": 18,
	"title": "Gomez-Acebo & Pombo Abogados, S.L.P.",
	"latitude": 40.4203,
	"longitude": -3.705774,
	"descriptionhtml": "<p>Madrid - SPAIN<br>Tel:(00)-34-91-582-91-00 - Fax:(00)-34-91-582-91-14<br></p>",
	"hrefsite": "http://www.gomezacebo-pombo.com",
	"markergroup": 1
  },
  {
	"id": 19,
	"title": "Konecná & Zacha",
	"latitude": 50.079082,
	"longitude": 14.43323,
	"descriptionhtml": "<p>Praha - CZECH REPUBLIC<br>Tel:+420 221 990 455 - Fax:+420 221 990 450<br></p>",
	"hrefsite": "http://www.konecna-zacha.com",
	"markergroup": 1
  },
  {
	"id": 20,
	"title": "NautaDutilh",
	"latitude": 52.373096,
	"longitude": 4.893305,
	"descriptionhtml": "<p>Amsterdam - NETHERLANDS<br>Tel:+31 20 7171 474 - Fax:+31 20 7171 348<br>info@nautadutilh.com</p>",
	"hrefsite": "http://www.nautadutilh.com",
	"markergroup": 1
  },
  {
	"id": 21,
	"title": "Noer LLP",
	"latitude": 48.136414,
	"longitude": 11.577531,
	"descriptionhtml": "<p>Munich - GERMANY<br>Tel:(00)-49-89-28628-178 - Fax:(00)-49-89-280-110<br></p>",
	"hrefsite": "http://www.noerr.com",
	"markergroup": 1
  },
  {
	"id": 22,
	"title": "Noerr OOO",
	"latitude": 55.75687,
	"longitude": 37.615101,
	"descriptionhtml": "<p>Moscow - RUSSIAN FEDERATION<br>Tel:(00)-7-495-799-5696 - Fax:(00)-7-495-799-5697<br></p>",
	"hrefsite": "http://www.noerr.com",
	"markergroup": 1
  },
  {
	"id": 23,
	"title": "Ogier",
	"latitude": 49.2122,
	"longitude": -2.13317,
	"descriptionhtml": "<p>Jersey  - CHANNEL ISLANDS<br>Tel:+44 (0) 1534 504000 - Fax:+44 (0) 1534 504444<br></p>",
	"hrefsite": "http://www.ogier.com",
	"markergroup": 1
  },
  {
	"id": 24,
	"title": "Panagopoulos Vainanidis Schina Economou",
	"latitude": 37.976051,
	"longitude": 23.737181,
	"descriptionhtml": "<p>Athens - GREECE<br>Tel:(00)-30-210-363-4287 / (00) 30 210 364 3846 - Fax:(00)-30-210-360-4611<br></p>",
	"hrefsite": "http://www.pvse-law.gr",
	"markergroup": 1
  },
  {
	"id": 25,
	"title": "Peden & Reid",
	"latitude": 54.595295,
	"longitude": -5.934524,
	"descriptionhtml": "<p>Belfast - NORTHERN IRELAND<br>Tel:(00) 44 2890 325 617 - Fax:(00) 44 2890 247 343<br></p>",
	"hrefsite": "",
	"markergroup": 1
  },
  {
	"id": 26,
	"title": "Plesner",
	"latitude": 55.676311,
	"longitude": 12.569355,
	"descriptionhtml": "<p>Copenhagen - DENMARK<br>Tel:(+45) 33 12 11 33 - Fax:(+45) 33 12 00 14<br></p>",
	"hrefsite": "http://www.plesner.com",
	"markergroup": 1
  },
  {
	"id": 27,
	"title": "Reykjavik Law Firm",
	"latitude": 64.147415,
	"longitude": -21.933989,
	"descriptionhtml": "<p>Reykjavik - ICELAND<br>Tel:(00)-354-515-7400 - Fax:(00)-354-515-7401<br>lr@icelaw.is</p>",
	"hrefsite": "http://www.icelaw.is",
	"markergroup": 1
  },
  {
	"id": 28,
	"title": "Staiger, Schwald & Partner Ltd",
	"latitude": 47.37706,
	"longitude": 8.53955,
	"descriptionhtml": "<p>Zurich - SWITZERLAND<br>Tel:+41 58 387 80 00 - Fax:+41 58 387 80 99<br>ssplaw@ssplaw.ch</p>",
	"hrefsite": "http://www.ssplaw.ch",
	"markergroup": 1
  },
  {
	"id": 29,
	"title": "Tark Grunte Sutkiene",
	"latitude": 59.436474,
	"longitude": 24.7526,
	"descriptionhtml": "<p>Tallinn  - ESTONIA<br>Tel:(00)-372-611-0900 - Fax:(00)-372-611-0911<br>estonia@tgslegal.com</p>",
	"hrefsite": "http://www.tarkgruntesutkiene.com",
	"markergroup": 1
  },
  {
	"id": 30,
	"title": "Tassos Papadopoulos & Associates",
	"latitude": 34.777161,
	"longitude": 32.434078,
	"descriptionhtml": "<p>Nicosia - CYPRUS<br>Tel:(00) 357 22 889 999 - Fax:(00) 357 22 889 988<br></p>",
	"hrefsite": "http://www.tplaw.com.cy",
	"markergroup": 1
  },
  {
	"id": 31,
	"title": "Tiefenbacher",
	"latitude": 49.41349,
	"longitude": 8.70819,
	"descriptionhtml": "<p>Heidelberg - GERMANY<br>Tel:+49 (0) 62 21/31 13-0 - Fax:+49 (0) 62 21/31 13-11<br>heidelberg@tiefenbacher.de</p>",
	"hrefsite": "http://www.tiefenbacher.de",
	"markergroup": 1
  },
  {
	"id": 32,
	"title": "Triay & Triay",
	"latitude": 36.156223,
	"longitude": -5.347493,
	"descriptionhtml": "<p>Gibraltar - GIBRALTAR<br>Tel:(00)-350-200-72020 - Fax:(00)-350-200-72270<br></p>",
	"hrefsite": "http://www.triay.com",
	"markergroup": 1
  },
  {
	"id": 33,
	"title": "Ughi e Nunziante",
	"latitude": 41.903111,
	"longitude": 12.49576,
	"descriptionhtml": "<p>Rome - ITALY<br>Tel:(+39) 06 47 48 31 - Fax:(+39) 06 48 15 912<br>un.roma@unlaw.it</p>",
	"hrefsite": "http://www.unlaw.it",
	"markergroup": 1
  },
  {
	"id": 34,
	"title": "Veale Wasbrough Vizards",
	"latitude": 51.453732,
	"longitude": -2.591564,
	"descriptionhtml": "<p>Bristol - UNITED KINGDOM<br>Tel:(00)-44-1179-252-020 - Fax:(00)-44-1179-252-025<br></p>",
	"hrefsite": "http://www.vwv.co.uk",
	"markergroup": 1
  },
  {
	"id": 35,
	"title": "Vilau & Mitel",
	"latitude": 44.434296,
	"longitude": 26.102964,
	"descriptionhtml": "<p>Bucharest - ROMANIA<br>Tel:+40 21 314 3155 / 3157 - Fax:+40 21 314 3160<br></p>",
	"hrefsite": "http://www.vilaumitel.ro",
	"markergroup": 1
  },
  {
	"id": 36,
	"title": "Walch & Schurti",
	"latitude": 47.138794,
	"longitude": 9.52164,
	"descriptionhtml": "<p>Vaduz - LIECHTENSTEIN<br>Tel:(00) 423 237 2000 - Fax:(00) 423 237 2100<br></p>",
	"hrefsite": "http://www.walchschurti.nethome",
	"markergroup": 1
  },
  {
	"id": 37,
	"title": "WKB Wiercinski, Kwiecinski, Baehr",
	"latitude": 52.235371,
	"longitude": 21.009485,
	"descriptionhtml": "<p>Warsaw - POLAND<br>Tel:+48 22 201 00 00 - Fax:+48 22 201 00 99<br></p>",
	"hrefsite": "http://www.wkb.com.pl",
	"markergroup": 1
	}
]
